[
  {
    "id": "5f13bc9655b2a0f654ce9996",
    "index": 0,
    "price": 2145,
    "picture": "https://via.placeholder.com/150",
    "stockcount": 32,
    "name": "Roslyn Vargas",
    "about": "Sit commodo Lorem ipsum ex id non reprehenderit et commodo. Duis minim dolor tempor culpa laborum in. Ullamco id minim irure ea fugiat magna commodo irure quis sit esse. Sit fugiat sint dolore officia ipsum aliquip nisi labore ex ea et velit magna. Culpa sint do labore qui est cillum fugiat. Proident ullamco enim do elit id irure duis non reprehenderit. Ut Lorem aliqua nulla officia deserunt minim eiusmod veniam adipisicing culpa nostrud ullamco incididunt pariatur.",
    "categories": [
      "dolor",
      "eu",
      "ipsum"
    ]
  },
  {
    "id": "5f13bc96ce0417498a5544a9",
    "index": 1,
    "price": 1698,
    "picture": "https://via.placeholder.com/150",
    "stockcount": 10,
    "name": "James Phillips",
    "about": "Cupidatat id qui ea tempor nostrud elit et et veniam ut. Non adipisicing occaecat nisi in aute voluptate consectetur magna laboris aute. Cillum ea qui ea nostrud officia et. Occaecat irure eiusmod exercitation elit ex. Ad ad laborum dolore voluptate in non. Minim culpa qui deserunt aliqua eiusmod aute esse cupidatat.",
    "categories": [
      "tempor",
      "reprehenderit",
      "Lorem"
    ]
  },
  {
    "id": "5f13bc962c310582ef5ae650",
    "index": 2,
    "price": 1593,
    "picture": "https://via.placeholder.com/150",
    "stockcount": 4,
    "name": "Winters Morrow",
    "about": "Anim et cupidatat exercitation velit in est consectetur labore velit. Ipsum eiusmod ad quis deserunt ullamco qui quis. Irure nisi consequat proident aliquip laboris esse Lorem consequat labore adipisicing dolor.",
    "categories": [
      "do",
      "occaecat",
      "enim"
    ]
  },
  {
    "id": "5f13bc9627ef55671f2c7c0d",
    "index": 3,
    "price": 3090,
    "picture": "https://via.placeholder.com/150",
    "stockcount": 28,
    "name": "Karina Stephens",
    "about": "Non eiusmod nulla sit officia occaecat sunt occaecat consectetur ad. Lorem duis cillum irure Lorem ad aute enim eiusmod eiusmod ex tempor ut pariatur adipisicing. Pariatur anim id culpa labore nisi.",
    "categories": [
      "irure",
      "incididunt",
      "incididunt"
    ]
  },
  {
    "id": "5f13bc96eb985d7a8767db34",
    "index": 4,
    "price": 1597,
    "picture": "https://via.placeholder.com/150",
    "stockcount": 20,
    "name": "Latasha Pruitt",
    "about": "Tempor laborum deserunt dolore sit aliquip do ut consectetur consequat ea sit. Laborum ex excepteur est ex sint dolore cillum. Cillum amet quis amet amet pariatur ut culpa ullamco do. Commodo laboris occaecat ex duis proident duis magna exercitation do dolore aliquip incididunt velit. Est sint sit magna anim duis ad magna nostrud enim dolore pariatur magna eu. Et dolor consectetur ipsum amet pariatur aute enim quis. Amet veniam ipsum irure deserunt laborum velit.",
    "categories": [
      "excepteur",
      "occaecat",
      "pariatur"
    ]
  }
]
